…
## Measuring vital rates and building a life table
Old school population demographers also built life tables for a cohort of individuals followed through life, which include direct measurements of mortality, and reproduction to calculate $r$.

Let's use an example published by Carey and Bradley$^1$ of the Atlantic Spider mite. The below table shows for each day $x$ the proportion surviving $P(x)$ and mean daily reproduction rate per individual for a synchronised cohort through time starting at egg lay.   

```r
mite = read_csv('data/AtlanticSpiderMite_CareyBradley1982.csv')
```

```r
> mite
# A tibble: 26 × 3
       x `P(x)` `m(x)`
   <dbl>  <dbl>  <dbl>
 1     0      1   0   
 2     1      1   0   
 3     2      1   0   
 4     3      1   0   
 5     4      1   0   
 6     5      1   0   
 7     6      1   0   
 8     7      1   0.37
 9     8      1   3.53
10     9      1   7.43
# … with 16 more rows
# ℹ Use `print(n = ...)` to see more rows
```
…
